Match LBW with Heni’s Data
…
states = unique(substr(mismatch$res_census_block, 1,2))                                

There are many GEOIDs in my data that are not included in Heni’s data (as shown above). Births from a total of 18 states are included in the data.

After including only the CTs that are in Heni’s dataset, Heni and I have matching rates. Note that my data does not show any missings because of the way I have chosen to structure my dataset - i.e. there is no 2012 column if there is no 2012 rate.

This is a crude check of our rates

lbwsub = lbw_rates %>% filter(res_census_block %in% heni$res_census_block)

lbw_rates %>% filter(!res_census_block %in% heni$res_census_block)

# A tibble: 79 × 3
# Groups:   res_census_block [46]
   res_census_block  year lbwrate
   <chr>            <dbl>   <dbl>
 1 06041113000       2014       0
 2 06085506503       2014       0
 3 06113010611       2018       0
 4 08059009856       2015       1
 5 11001004802       2013       0
 6 13231010300       2017       0
 7 17007010300       2016       0
 8 17031680500       2019       0
 9 17031804712       2016       0
10 17031810200       2019       1
# ℹ 69 more rows
…
